土地利用、人口结构、地价和生物多样性
…
## Morgan-Tatar search since family is non-gaussian.
## Morgan-Tatar search since family is non-gaussian.
## Morgan-Tatar search since family is non-gaussian.
## Morgan-Tatar search since family is non-gaussian.

## [[1]]
## # A tibble: 36 × 4
##    model_id var                estimate      p
##       <int> <chr>                 <dbl>  <dbl>
##  1        1 mid_high_resi  -0.276       0.364 
##  2        1 com_ind         0.469       0.259 
##  3        1 park            0.753       0.0166
##  4        1 pop65over_prop  3.23        0.128 
##  5        1 pop75over_prop -6.80        0.0978
##  6        1 pop85over_prop 10.3         0.0433
##  7        1 price          -0.000000718 0.0146
##  8        2 transport      -0.213       0.486 
##  9        2 mid_high_resi  -0.316       0.308 
## 10        2 com_ind         0.408       0.333 
## # ℹ 26 more rows
## 
## [[2]]
## # A tibble: 38 × 4
##    model_id var                estimate        p
##       <int> <chr>                 <dbl>    <dbl>
##  1        1 transport      -0.410       0.0765  
##  2        1 mid_high_resi  -0.372       0.114   
##  3        1 com_ind        -0.720       0.0251  
##  4        1 pop15_64_prop  -2.36        0.0774  
##  5        1 pop75over_prop -3.08        0.112   
##  6        1 pop85over_prop  6.72        0.0535  
##  7        1 price          -0.000000766 0.000727
##  8        2 mid_high_resi  -0.302       0.192   
##  9        2 com_ind        -0.639       0.0449  
## 10        2 pop15_64_prop  -2.38        0.0752  
## # ℹ 28 more rows
## 
## [[3]]
…
##  8        3 low_resi        -0.190      0
##  9        3 park             0.894      0
## 10        3 pop0_14_prop     5.47       0
## 11        3 pop85over_prop   5.90       0
## 12        4 park             0.984      0
## 13        4 pop0_14_prop     5.29       0
## 14        4 pop15_64_prop   -0.456      0
## 15        4 pop85over_prop   5.13       0
## 16        5 mid_high_resi   -0.0704     0
## 17        5 park             0.979      0
## 18        5 pop0_14_prop     5.31       0
## 19        5 pop85over_prop   5.74       0
## 
## [[4]]
## # A tibble: 28 × 4
##    model_id var            estimate          p
##       <int> <chr>             <dbl>      <dbl>
##  1        1 low_resi          0.687 0.00000994
##  2        1 mid_high_resi    -0.264 0.214     
##  3        1 com_ind          -0.416 0.113     
##  4        1 pop0_14_prop      1.90  0.141     
##  5        1 pop85over_prop    3.69  0.0292    
##  6        2 low_resi          0.679 0.0000136 
##  7        2 mid_high_resi    -0.280 0.190     
##  8        2 com_ind          -0.424 0.107     
##  9        2 pop0_14_prop      1.77  0.176     
## 10        2 pop15_64_prop    -0.574 0.495     
## # ℹ 18 more rows
…
